{"reservations":[
        {"reservation_id":1,"customer_id":"Annette van Geleuken","room_num":12,"total_price":70,"check_in_date":"12/5/2019","check_out_date":"2/23/2019"},
        {"reservation_id":2,"customer_id":"Pieter","room_num":22,"total_price":91,"check_in_date":"3/24/2019","check_out_date":"8/19/2019"},
        {"reservation_id":3,"customer_id":"Thomas","room_num":17,"total_price":53,"check_in_date":"1/8/2020","check_out_date":"8/25/2019"},
        {"reservation_id":4,"customer_id":"Romy","room_num":86,"total_price":37,"check_in_date":"5/5/2019","check_out_date":"12/1/2019"},
        {"reservation_id":5,"customer_id":"Tim","room_num":14,"total_price":2,"check_in_date":"11/22/2019","check_out_date":"3/23/2019"},
        {"reservation_id":6,"customer_id":"Tim","room_num":33,"total_price":75,"check_in_date":"4/4/2019","check_out_date":"1/30/2019"},
        {"reservation_id":7,"customer_id":"Romy","room_num":5,"total_price":9,"check_in_date":"4/30/2019","check_out_date":"8/3/2019"},
        {"reservation_id":8,"customer_id":"Thomas","room_num":5,"total_price":99,"check_in_date":"11/6/2019","check_out_date":"3/12/2019"},
        {"reservation_id":9,"customer_id":"Pieter","room_num":99,"total_price":21,"check_in_date":"7/7/2019","check_out_date":"6/18/2019"},
        {"reservation_id":10,"customer_id":"Annette","room_num":66,"total_price":52,"check_in_date":"3/17/2019","check_out_date":"12/4/2019"}
    ]
}